{
	"info": {
		"_postman_id": "64d96e00-d4d6-40c0-8be3-2606216b8e02",
		"name": "21-prepare-rfs-catalog-UserStory-vFW-selector",
		"schema": "https://schema.getpostman.com/json/collection/v2.1.0/collection.json"
	},
	"item": [
		{
			"name": "Declare_vFW_based_on_VNF_model_A",
			"event": [
				{
					"listen": "test",
					"script": {
						"id": "e6118e78-e476-4049-8e81-f81b53ba625a",
						"exec": [
							"pm.test(\"Status code is 201\", function () {",
							"    pm.response.to.have.status(201);",
							"});",
							"",
							"var jsonData = pm.response.json();",
							"",
							"pm.environment.set(\"auto_vFW_model_A_spec_id\", \"\"+jsonData.id+\"\");"
						],
						"type": "text/javascript"
					}
				}
			],
			"request": {
				"method": "POST",
				"header": [
					{
						"key": "Content-Type",
						"value": "application/json"
					},
					{
						"key": "Accept",
						"value": "application/json"
					},
					{
						"key": "X-TransactionId",
						"value": "ONAP-Test"
					},
					{
						"key": "USER_ID",
						"value": "cs0008"
					},
					{
						"key": "X-FromAppId",
						"value": "ONAP-Test"
					},
					{
						"key": "Authorization",
						"value": "Basic YWFpOktwOGJKNFNYc3pNMFdYbGhhazNlSGxjc2UyZ0F3ODR2YW9HR21KdlV5MlU="
					},
					{
						"key": "x-ecomp-instanceid",
						"value": "ONAP-Test"
					}
				],
				"body": {
					"mode": "raw",
					"raw": "{\r\n  \"name\": \"vFW_model_A\",\r\n  \"id\": \"{{auto_vFW_model_A_spec_id}}\",\r\n  \"supportingResource\": [\r\n  \t{\"name\": \"onap_1\",\r\n  \t\"id\": \"001\",\r\n  \t\"role\": [{\r\n          \"description\": \"NFV-Orchestrator\",\r\n          \"id\": \"001\",\r\n          \"name\": \"NFV-Orchestrator\"\r\n  \t\t\t}\r\n  \t\t]\r\n  \t\t\r\n  \t}\r\n  \t]\r\n}\r\n"
				},
				"url": {
					"raw": "{{url-serv-resolv-rfs-spec}}/rfsSpecification",
					"host": [
						"{{url-serv-resolv-rfs-spec}}"
					],
					"path": [
						"rfsSpecification"
					]
				}
			},
			"response": []
		},
		{
			"name": "Declare_vFW_service_conf_model_A",
			"event": [
				{
					"listen": "test",
					"script": {
						"id": "e6118e78-e476-4049-8e81-f81b53ba625a",
						"exec": [
							"pm.test(\"Status code is 201\", function () {",
							"    pm.response.to.have.status(201);",
							"});",
							"",
							"var jsonData = pm.response.json();",
							"",
							"pm.environment.set(\"auto_vFW_service_conf_model_A_spec_id\", \"\"+jsonData.id+\"\");"
						],
						"type": "text/javascript"
					}
				}
			],
			"request": {
				"method": "POST",
				"header": [
					{
						"key": "Content-Type",
						"value": "application/json"
					}
				],
				"body": {
					"mode": "raw",
					"raw": "{\n  \"name\": \"vFW_service_conf_model_A\",\n  \"id\": \"{{auto_vFW_service_conf_model_A_spec_id}}\",\n\t\"serviceSpecRelationship\": [\n\t\t{\n\t\t\t\"id\": \"{{auto_vFW_model_A_spec_id}}\",\n\t\t\t\"name\": \"vFW_model_A\",\n\t\t\t\"relationshipType\": \"reliesOn\",\n\t\t\t\"description\": \"that rfs is an allotted resource linked to that rfs\"\n\t\t}\n\t\t],\n  \"supportingResource\": [\n  \t{\"name\": \"onap_1\",\n  \t\"id\": \"001\",\n  \t\"role\": [{\n          \"description\": \"NFV-Orchestrator\",\n          \"id\": \"001\",\n          \"name\": \"NFV-Orchestrator\"\n  \t\t\t}\n  \t\t]\n  \t\t\n  \t}\n  \t]\n}\n"
				},
				"url": {
					"raw": "{{url-serv-resolv-rfs-spec}}/rfsSpecification",
					"host": [
						"{{url-serv-resolv-rfs-spec}}"
					],
					"path": [
						"rfsSpecification"
					]
				}
			},
			"response": []
		},
		{
			"name": "Declare_vFW_based_on_VNF_model_B",
			"event": [
				{
					"listen": "test",
					"script": {
						"id": "e6118e78-e476-4049-8e81-f81b53ba625a",
						"exec": [
							"pm.test(\"Status code is 201\", function () {",
							"    pm.response.to.have.status(201);",
							"});",
							"",
							"var jsonData = pm.response.json();",
							"",
							"pm.environment.set(\"auto_vFW_model_B_spec_id\", \"\"+jsonData.id+\"\");"
						],
						"type": "text/javascript"
					}
				}
			],
			"request": {
				"method": "POST",
				"header": [
					{
						"key": "Content-Type",
						"value": "application/json"
					}
				],
				"body": {
					"mode": "raw",
					"raw": "{\n  \"name\": \"vFW_model_B\",\n  \"id\": \"{{auto_vFW_model_B_spec_id}}\",\n  \"supportingResource\": [\n  \t{\"name\": \"onap_1\",\n  \t\"id\": \"001\",\n  \t\"role\": [{\n          \"description\": \"NFV-Orchestrator\",\n          \"id\": \"001\",\n          \"name\": \"NFV-Orchestrator\"\n  \t\t\t}\n  \t\t]\n  \t\t\n  \t}\n  \t]\n}\n"
				},
				"url": {
					"raw": "{{url-serv-resolv-rfs-spec}}/rfsSpecification",
					"host": [
						"{{url-serv-resolv-rfs-spec}}"
					],
					"path": [
						"rfsSpecification"
					]
				}
			},
			"response": []
		},
		{
			"name": "Declare_vFW_service_conf_model_B",
			"event": [
				{
					"listen": "test",
					"script": {
						"id": "e6118e78-e476-4049-8e81-f81b53ba625a",
						"exec": [
							"pm.test(\"Status code is 201\", function () {",
							"    pm.response.to.have.status(201);",
							"});",
							"",
							"var jsonData = pm.response.json();",
							"",
							"pm.environment.set(\"auto_vFW_service_conf_model_B_spec_id\", \"\"+jsonData.id+\"\");"
						],
						"type": "text/javascript"
					}
				}
			],
			"request": {
				"method": "POST",
				"header": [
					{
						"key": "Content-Type",
						"value": "application/json"
					}
				],
				"body": {
					"mode": "raw",
					"raw": "{\n  \"name\": \"vFW_service_conf_model_B\",\n  \"id\": \"{{auto_vFW_service_conf_model_B_spec_id}}\",\n\t\"serviceSpecRelationship\": [\n\t\t{\n\t\t\t\"id\": \"{{auto_vFW_model_B_spec_id}}\",\n\t\t\t\"name\": \"vFW_model_B\",\n\t\t\t\"relationshipType\": \"reliesOn\",\n\t\t\t\"description\": \"that rfs is an allotted resource linked to that rfs\"\n\t\t}\n\t\t],\n  \"supportingResource\": [\n  \t{\"name\": \"onap_1\",\n  \t\"id\": \"001\",\n  \t\"role\": [{\n          \"description\": \"NFV-Orchestrator\",\n          \"id\": \"001\",\n          \"name\": \"NFV-Orchestrator\"\n  \t\t\t}\n  \t\t]\n  \t\t\n  \t}\n  \t]\n}\n"
				},
				"url": {
					"raw": "{{url-serv-resolv-rfs-spec}}/rfsSpecification",
					"host": [
						"{{url-serv-resolv-rfs-spec}}"
					],
					"path": [
						"rfsSpecification"
					]
				}
			},
			"response": []
		}
	],
	"event": [
		{
			"listen": "prerequest",
			"script": {
				"id": "0bf468a3-a931-4be6-9ee6-8174070d9adc",
				"type": "text/javascript",
				"exec": [
					""
				]
			}
		},
		{
			"listen": "test",
			"script": {
				"id": "6c0f9618-3909-46c0-816e-362c8709cb9c",
				"type": "text/javascript",
				"exec": [
					""
				]
			}
		}
	]
}