{
  "type": "object",
  "required": [
    "description",
    "name",
    "version",
    "serviceSpecCharacteristic",
    "serviceSpecRelationship"
  ],
  "properties": {
    "category": {
      "type": "string"
    },
    "description": {
      "type": "string"
    },
    "version": {
      "type": "string"
    },
    "href": {
      "type": "string"
    },
    "id": {
      "type": "string"
    },
    "lastUpdate": {
      "type": "string"
    },
    "lastcycleStatus": {
      "type": "string"
    },
    "name": {
      "type": "string"
    },
    "relatedParty": {
      "type": "array",
      "items": {
        "$ref": "#/definitions/RelatedParty"
      }
    },
    "serviceSpecCharacteristic": {
      "type": "array",
      "items": {
        "$ref": "#/definitions/ServiceSpecCharacteristic"
      }
    },
    "serviceSpecRelationship": {
      "type": "array",
      "minItems": 1,
      "items": {
        "$ref": "#/definitions/ServiceSpecRelationship"
      }
    },
    "validFor": {
      "type": "#/definitions/DateTime"
    }
  },
  "definitions": {
    "RelatedParty": {
      "href": {
        "type": "string"
      },
      "id": {
        "type": "string"
      },
      "name": {
        "type": "string"
      },
      "role": {
        "type": "string"
      }
    },
    "ServiceSpecCharacteristic": {
      "type": "object",
      "properties": {
        "description": {
          "type": "string"
        },
        "name": {
          "type": "string"
        },
        "valueType": {
          "type": "string"
        },
        "possible_values": {
          "type": "array",
          "items": {
            "type": "string"
          }
        },
        "mandatory_characteristic": {
          "type": "boolean"
        },
        "default_value": {
          "type": "string"
        }
      }
    },
    "ServiceSpecRelationship": {
      "type": "object",
      "required": [
        "id",
        "name",
        "priority"
      ],
      "properties": {
        "id": {
          "type": "string"
        },
        "name": {
          "type": "string"
        },
        "relationshipType": {
          "type": "string"
        },
        "instantiationPriority": {
          "type": "number"
        },
        "instantiationDecisionRules": {
          "type": "array",
          "items": {
            "$ref": "#/definitions/instantiationDecisionRules"
          }
        }
      }
    },
    "DateTime": {
      "endDateTme": {
        "type": "string"
      },
      "startDateTime": {
        "type": "string"
      }
    },
    "instantiationDecisionRules": {
      "type": "object",
      "required": [
        "priority",
        "rule_operation",
        "rule_params",
        "rule_results"
      ],
      "properties": {
        "ruleEvaluationPriority": {
          "type": "number"
        },
        "rule_name": {
          "type": "string"
        },
        "rule_operation": {
          "type": "string"
        },
        "rule_params": {
          "type": "object"
        },
        "rule_results": {
          "type": "array",
          "minItems": 1,
          "items": {
            "$ref": "#/definitions/Rule_Results"
          }
        }
      }
    },
    "Rule_Results": {
      "type": "object",
      "required": [
        "rule_response",
        "decision",
        "is_definitive_decision"
      ],
      "properties": {
        "rule_response": {
          "type": "string"
        },
        "decision": {
          "type": "string"
        },
        "is_definitive_decision": {
          "type": "boolean"
        }
      }
    }
  }
}
