{
	"info": {
		"_postman_id": "f9a6425f-eda7-45c2-8504-82eee94bed30",
		"name": "03-cfs-orders-UserStory-ONAP_5G_slicing",
		"schema": "https://schema.getpostman.com/json/collection/v2.1.0/collection.json"
	},
	"item": [
		{
			"name": "order 5G network slice 1 add",
			"event": [
				{
					"listen": "test",
					"script": {
						"id": "52d8909c-fefc-45f3-9af6-4ecac8f89337",
						"exec": [
							"pm.test(\"Status code is 201\", function () {",
							"    pm.response.to.have.status(201);",
							"});",
							"",
							"var jsonData = pm.response.json();",
							"",
							"pm.environment.set(\"auto_NetSlice_cfs_01_id\", \"\"+jsonData.orderItem[0].service.id+\"\");",
							""
						],
						"type": "text/javascript"
					}
				}
			],
			"request": {
				"method": "POST",
				"header": [
					{
						"key": "Content-Type",
						"name": "Content-Type",
						"type": "text",
						"value": "application/json"
					}
				],
				"body": {
					"mode": "raw",
					"raw": "{\n    \"category\": \"5G network slice service\",\n    \"description\": \"service order for 5G network slice service\",\n    \"externalId\": \"BSS_order_01\",\n    \"note\": {\n        \"author\": \"Orange\",\n        \"date\": \"Dec 2019\",\n        \"text\": \"\"\n    },\n    \"notificationContact\": \"\",\n    \"orderItem\": [\n        {\n            \"action\": \"add\",\n            \"id\": \"1\",\n            \"service\": {\n                \"name\": \"NetSlice_01\",\n                \"place\": [\n                    {\n                        \"id\": \"\",\n                        \"name\": \"\",\n                        \"role\": \"\"\n                    }\n                ],\n                \"relatedParty\": [\n                    {\n                        \"id\": \"PSA\",\n                        \"name\": \"PSA\",\n                        \"role\": \"customer\",\n                        \"href\": \"\"\n                    }\n                ],\n                \"serviceCharacteristic\": [],\n                \"serviceSpecification\": {\n                    \"id\": \"{{auto_5G_Network_Slice_cfs_spec_id}}\",\n                    \"name\": \"5G_Network_SliceE2E\",\n                    \"version\": \"1\"\n                },\n                \"serviceState\": \"active\",\n                \"serviceType\": \"\"\n            }\n        }\n    ],\n    \"priority\": \"1\",\n    \"relatedParty\": [\n        {\n            \"id\": \"PSA\",\n            \"name\": \"PSA\",\n            \"role\": \"customer\",\n            \"href\": \"\"\n        }\n    ]\n}"
				},
				"url": {
					"raw": "{{url-serv-resolv-service-order}}/cfsOrder",
					"host": [
						"{{url-serv-resolv-service-order}}"
					],
					"path": [
						"cfsOrder"
					]
				}
			},
			"response": []
		},
		{
			"name": "order 5G network slice 2 add",
			"event": [
				{
					"listen": "test",
					"script": {
						"id": "52d8909c-fefc-45f3-9af6-4ecac8f89337",
						"exec": [
							"pm.test(\"Status code is 201\", function () {",
							"    pm.response.to.have.status(201);",
							"});",
							"",
							"var jsonData = pm.response.json();",
							"",
							"pm.environment.set(\"auto_NetSlice_cfs_02_id\", \"\"+jsonData.orderItem[0].service.id+\"\");",
							""
						],
						"type": "text/javascript"
					}
				}
			],
			"request": {
				"method": "POST",
				"header": [
					{
						"key": "Content-Type",
						"name": "Content-Type",
						"type": "text",
						"value": "application/json"
					}
				],
				"body": {
					"mode": "raw",
					"raw": "{\n    \"category\": \"5G network slice service\",\n    \"description\": \"service order for 5G network slice service\",\n    \"externalId\": \"BSS_order_02\",\n    \"note\": {\n        \"author\": \"Orange\",\n        \"date\": \"Dec 2019\",\n        \"text\": \"\"\n    },\n    \"notificationContact\": \"\",\n    \"orderItem\": [\n        {\n            \"action\": \"add\",\n            \"id\": \"1\",\n            \"service\": {\n                \"name\": \"NetSlice_02\",\n                \"place\": [\n                    {\n                        \"id\": \"\",\n                        \"name\": \"\",\n                        \"role\": \"\"\n                    }\n                ],\n                \"relatedParty\": [\n                    {\n                        \"id\": \"PSA\",\n                        \"name\": \"PSA\",\n                        \"role\": \"customer\",\n                        \"href\": \"\"\n                    }\n                ],\n                \"serviceCharacteristic\": [],\n                \"serviceSpecification\": {\n                    \"id\": \"{{auto_5G_Network_Slice_cfs_spec_id}}\",\n                    \"name\": \"5G_Network_SliceE2E\",\n                    \"version\": \"1\"\n                },\n                \"serviceState\": \"active\",\n                \"serviceType\": \"\"\n            }\n        }\n    ],\n    \"priority\": \"1\",\n    \"relatedParty\": [\n        {\n            \"id\": \"PSA\",\n            \"name\": \"PSA\",\n            \"role\": \"customer\",\n            \"href\": \"\"\n        }\n    ]\n}"
				},
				"url": {
					"raw": "{{url-serv-resolv-service-order}}/cfsOrder",
					"host": [
						"{{url-serv-resolv-service-order}}"
					],
					"path": [
						"cfsOrder"
					]
				}
			},
			"response": []
		},
		{
			"name": "order 5G network slice 3 add",
			"event": [
				{
					"listen": "test",
					"script": {
						"id": "52d8909c-fefc-45f3-9af6-4ecac8f89337",
						"exec": [
							"pm.test(\"Status code is 201\", function () {",
							"    pm.response.to.have.status(201);",
							"});",
							"",
							"var jsonData = pm.response.json();",
							"",
							"pm.environment.set(\"auto_NetSlice_cfs_03_id\", \"\"+jsonData.orderItem[0].service.id+\"\");",
							""
						],
						"type": "text/javascript"
					}
				}
			],
			"request": {
				"method": "POST",
				"header": [
					{
						"key": "Content-Type",
						"name": "Content-Type",
						"type": "text",
						"value": "application/json"
					}
				],
				"body": {
					"mode": "raw",
					"raw": "{\n    \"category\": \"5G network slice service\",\n    \"description\": \"service order for 5G network slice service\",\n    \"externalId\": \"BSS_order_03\",\n    \"note\": {\n        \"author\": \"Orange\",\n        \"date\": \"Dec 2019\",\n        \"text\": \"\"\n    },\n    \"notificationContact\": \"\",\n    \"orderItem\": [\n        {\n            \"action\": \"add\",\n            \"id\": \"1\",\n            \"service\": {\n                \"name\": \"NetSlice_03\",\n                \"place\": [\n                    {\n                        \"id\": \"\",\n                        \"name\": \"\",\n                        \"role\": \"\"\n                    }\n                ],\n                \"relatedParty\": [\n                    {\n                        \"id\": \"ENEDIS\",\n                        \"name\": \"ENEDIS\",\n                        \"role\": \"customer\",\n                        \"href\": \"\"\n                    }\n                ],\n                \"serviceCharacteristic\": [],\n                \"serviceSpecification\": {\n                    \"id\": \"{{auto_5G_Network_Slice_cfs_spec_id}}\",\n                    \"name\": \"5G_Network_SliceE2E\",\n                    \"version\": \"1\"\n                },\n                \"serviceState\": \"active\",\n                \"serviceType\": \"\"\n            }\n        }\n    ],\n    \"priority\": \"1\",\n    \"relatedParty\": [\n        {\n            \"id\": \"ENEDIS\",\n            \"name\": \"ENEDIS\",\n            \"role\": \"customer\",\n            \"href\": \"\"\n        }\n    ]\n}"
				},
				"url": {
					"raw": "{{url-serv-resolv-service-order}}/cfsOrder",
					"host": [
						"{{url-serv-resolv-service-order}}"
					],
					"path": [
						"cfsOrder"
					]
				}
			},
			"response": []
		},
		{
			"name": "order 5G network slice 1 delete",
			"event": [
				{
					"listen": "test",
					"script": {
						"id": "52d8909c-fefc-45f3-9af6-4ecac8f89337",
						"exec": [
							"pm.test(\"Status code is 201\", function () {",
							"    pm.response.to.have.status(201);",
							"});",
							""
						],
						"type": "text/javascript"
					}
				}
			],
			"request": {
				"method": "POST",
				"header": [
					{
						"key": "Content-Type",
						"name": "Content-Type",
						"type": "text",
						"value": "application/json"
					}
				],
				"body": {
					"mode": "raw",
					"raw": "{\n    \"category\": \"5G network slice service\",\n    \"description\": \"service order for 5G network slide service\",\n    \"externalId\": \"BSS_order_04\",\n    \"note\": {\n        \"author\": \"Orange\",\n        \"date\": \"Dec 2019\",\n        \"text\": \"\"\n    },\n    \"notificationContact\": \"\",\n    \"orderItem\": [\n        {\n            \"action\": \"delete\",\n            \"id\": \"1\",\n            \"service\": {\n                \"name\": \"NetSlice_01\",\n                \"id\": \"{{auto_NetSlice_cfs_01_id}}\",\n                \"place\": [\n                    {\n                        \"id\": \"\",\n                        \"name\": \"\",\n                        \"role\": \"\"\n                    }\n                ],\n                \"relatedParty\": [\n                    {\n                        \"id\": \"PSA\",\n                        \"name\": \"PSA\",\n                        \"role\": \"customer\",\n                        \"href\": \"\"\n                    }\n                ]\n            }\n        }\n    ],\n    \"priority\": \"1\",\n    \"relatedParty\": [\n        {\n            \"id\": \"PSA\",\n            \"name\": \"PSA\",\n            \"role\": \"customer\",\n            \"href\": \"\"\n        }\n    ]\n}"
				},
				"url": {
					"raw": "{{url-serv-resolv-service-order}}/cfsOrder",
					"host": [
						"{{url-serv-resolv-service-order}}"
					],
					"path": [
						"cfsOrder"
					]
				}
			},
			"response": []
		},
		{
			"name": "order 5G network slice 2 delete",
			"event": [
				{
					"listen": "test",
					"script": {
						"id": "52d8909c-fefc-45f3-9af6-4ecac8f89337",
						"exec": [
							"pm.test(\"Status code is 201\", function () {",
							"    pm.response.to.have.status(201);",
							"});",
							""
						],
						"type": "text/javascript"
					}
				}
			],
			"request": {
				"method": "POST",
				"header": [
					{
						"key": "Content-Type",
						"name": "Content-Type",
						"type": "text",
						"value": "application/json"
					}
				],
				"body": {
					"mode": "raw",
					"raw": "{\n    \"category\": \"5G network slice service\",\n    \"description\": \"service order for 5G network slide service\",\n    \"externalId\": \"BSS_order_05\",\n    \"note\": {\n        \"author\": \"Orange\",\n        \"date\": \"Dec 2019\",\n        \"text\": \"\"\n    },\n    \"notificationContact\": \"\",\n    \"orderItem\": [\n        {\n            \"action\": \"delete\",\n            \"id\": \"1\",\n            \"service\": {\n                \"name\": \"NetSlice_02\",\n                \"id\": \"{{auto_NetSlice_cfs_02_id}}\",\n                \"place\": [\n                    {\n                        \"id\": \"\",\n                        \"name\": \"\",\n                        \"role\": \"\"\n                    }\n                ],\n                \"relatedParty\": [\n                    {\n                        \"id\": \"PSA\",\n                        \"name\": \"PSA\",\n                        \"role\": \"customer\",\n                        \"href\": \"\"\n                    }\n                ]\n            }\n        }\n    ],\n    \"priority\": \"1\",\n    \"relatedParty\": [\n        {\n            \"id\": \"PSA\",\n            \"name\": \"PSA\",\n            \"role\": \"customer\",\n            \"href\": \"\"\n        }\n    ]\n}"
				},
				"url": {
					"raw": "{{url-serv-resolv-service-order}}/cfsOrder",
					"host": [
						"{{url-serv-resolv-service-order}}"
					],
					"path": [
						"cfsOrder"
					]
				}
			},
			"response": []
		},
		{
			"name": "order 5G network slice 3 delete",
			"event": [
				{
					"listen": "test",
					"script": {
						"id": "52d8909c-fefc-45f3-9af6-4ecac8f89337",
						"exec": [
							"pm.test(\"Status code is 201\", function () {",
							"    pm.response.to.have.status(201);",
							"});",
							""
						],
						"type": "text/javascript"
					}
				}
			],
			"request": {
				"method": "POST",
				"header": [
					{
						"key": "Content-Type",
						"name": "Content-Type",
						"type": "text",
						"value": "application/json"
					}
				],
				"body": {
					"mode": "raw",
					"raw": "{\n    \"category\": \"5G network slice service\",\n    \"description\": \"service order for 5G network slide service\",\n    \"externalId\": \"BSS_order_06\",\n    \"note\": {\n        \"author\": \"Orange\",\n        \"date\": \"Dec 2019\",\n        \"text\": \"\"\n    },\n    \"notificationContact\": \"\",\n    \"orderItem\": [\n        {\n            \"action\": \"delete\",\n            \"id\": \"1\",\n            \"service\": {\n                \"name\": \"NetSlice_03\",\n                \"id\": \"{{auto_NetSlice_cfs_03_id}}\",\n                \"place\": [\n                    {\n                        \"id\": \"\",\n                        \"name\": \"\",\n                        \"role\": \"\"\n                    }\n                ],\n                \"relatedParty\": [\n                    {\n                        \"id\": \"ENEDIS\",\n                        \"name\": \"ENEDIS\",\n                        \"role\": \"customer\",\n                        \"href\": \"\"\n                    }\n                ]\n            }\n        }\n    ],\n    \"priority\": \"1\",\n    \"relatedParty\": [\n        {\n            \"id\": \"ENEDIS\",\n            \"name\": \"ENEDIS\",\n            \"role\": \"customer\",\n            \"href\": \"\"\n        }\n    ]\n}"
				},
				"url": {
					"raw": "{{url-serv-resolv-service-order}}/cfsOrder",
					"host": [
						"{{url-serv-resolv-service-order}}"
					],
					"path": [
						"cfsOrder"
					]
				}
			},
			"response": []
		}
	],
	"event": [
		{
			"listen": "prerequest",
			"script": {
				"id": "bf3359ca-0e25-4f6f-9c2f-2ff5d558dc8c",
				"type": "text/javascript",
				"exec": [
					""
				]
			}
		},
		{
			"listen": "test",
			"script": {
				"id": "c43fa544-fc50-4704-812b-0078bf61003f",
				"type": "text/javascript",
				"exec": [
					""
				]
			}
		}
	],
	"protocolProfileBehavior": {}
}